<?xml version="1.0" encoding="UTF-8"?>
<svg id="Laag_1" data-name="Laag 1" xmlns="http://www.w3.org/2000/svg" viewBox="0 0 30.9 24.62">
  <defs>
    <style>
      .cls-1 {
        fill: #1d1d1b;
      }

      .cls-1, .cls-2 {
        stroke-width: .5px;
      }

      .cls-1, .cls-2, .cls-3 {
        stroke: #1d71b8;
        stroke-miterlimit: 10;
      }

      .cls-2 {
        fill: none;
      }

      .cls-3 {
        fill: #1d71b8;
        stroke-width: .25px;
      }
    </style>
  </defs>
  <line class="cls-1" x1="7.31" y1="17.31" x2=".18" y2="24.45"/>
  <polyline class="cls-2" points="7.31 17.31 22.96 1.66 24.37 .25 30.9 .25"/>
  <circle class="cls-3" cx="13.45" cy="11.17" r="8.68"/>
  <line class="cls-2" x1="29.83" y1="1.82" x2="22.8" y2="1.82"/>
  <line class="cls-2" x1="28.53" y1="3.41" x2="21.16" y2="3.41"/>
</svg>